trace.vcd
$version Generated by VerilatedVcd $end
$date Tue Nov  5 17:26:03 2024
 $end
$timescale   1ps $end

 $scope module TOP $end
  $var wire  1 "W clk $end
  $var wire 64 "Z entry [63:0] $end
  $var wire  1 "Y hz32768timer $end
  $var wire 64 #+ m_axi_acaddr [63:0] $end
  $var wire  1 #* m_axi_acready $end
  $var wire  4 #- m_axi_acsnoop [3:0] $end
  $var wire  1 #) m_axi_acvalid $end
  $var wire 64 "v m_axi_araddr [63:0] $end
  $var wire  2 "z m_axi_arburst [1:0] $end
  $var wire  4 "| m_axi_arcache [3:0] $end
  $var wire 13 "u m_axi_arid [12:0] $end
  $var wire  8 "x m_axi_arlen [7:0] $end
  $var wire  1 "{ m_axi_arlock $end
  $var wire  3 "} m_axi_arprot [2:0] $end
  $var wire  1 #! m_axi_arready $end
  $var wire  3 "y m_axi_arsize [2:0] $end
  $var wire  1 "~ m_axi_arvalid $end
  $var wire 64 "a m_axi_awaddr [63:0] $end
  $var wire  2 "e m_axi_awburst [1:0] $end
  $var wire  4 "g m_axi_awcache [3:0] $end
  $var wire 13 "` m_axi_awid [12:0] $end
  $var wire  8 "c m_axi_awlen [7:0] $end
  $var wire  1 "f m_axi_awlock $end
  $var wire  3 "h m_axi_awprot [2:0] $end
  $var wire  1 "j m_axi_awready $end
  $var wire  3 "d m_axi_awsize [2:0] $end
  $var wire  1 "i m_axi_awvalid $end
  $var wire 13 "q m_axi_bid [12:0] $end
  $var wire  1 "t m_axi_bready $end
  $var wire  2 "r m_axi_bresp [1:0] $end
  $var wire  1 "s m_axi_bvalid $end
  $var wire 64 ## m_axi_rdata [63:0] $end
  $var wire 13 #" m_axi_rid [12:0] $end
  $var wire  1 #& m_axi_rlast $end
  $var wire  1 #( m_axi_rready $end
  $var wire  2 #% m_axi_rresp [1:0] $end
  $var wire  1 #' m_axi_rvalid $end
  $var wire 64 "k m_axi_wdata [63:0] $end
  $var wire  1 "n m_axi_wlast $end
  $var wire  1 "p m_axi_wready $end
  $var wire  8 "m m_axi_wstrb [7:0] $end
  $var wire  1 "o m_axi_wvalid $end
  $var wire  1 "X reset $end
  $var wire 64 "^ satp [63:0] $end
  $var wire 64 "\ stackptr [63:0] $end
  $scope module top $end
   $var wire 32 #/ ADDR_WIDTH [31:0] $end
   $var wire 32 #/ DATA_WIDTH [31:0] $end
   $var wire 32 #. ID_WIDTH [31:0] $end
   $var wire 32 #0 STRB_WIDTH [31:0] $end
   $var wire  1 "W clk $end
   $var wire 32 "V count [31:0] $end
   $var wire 64 "Z entry [63:0] $end
   $var wire  1 "Y hz32768timer $end
   $var wire 32 ' instruction_high [31:0] $end
   $var wire 32 ( instruction_low [31:0] $end
   $var wire 64 #+ m_axi_acaddr [63:0] $end
   $var wire  1 #* m_axi_acready $end
   $var wire  4 #- m_axi_acsnoop [3:0] $end
   $var wire  1 #) m_axi_acvalid $end
   $var wire 64 "v m_axi_araddr [63:0] $end
   $var wire  2 "z m_axi_arburst [1:0] $end
   $var wire  4 "| m_axi_arcache [3:0] $end
   $var wire 13 "u m_axi_arid [12:0] $end
   $var wire  8 "x m_axi_arlen [7:0] $end
   $var wire  1 "{ m_axi_arlock $end
   $var wire  3 "} m_axi_arprot [2:0] $end
   $var wire  1 #! m_axi_arready $end
   $var wire  3 "y m_axi_arsize [2:0] $end
   $var wire  1 "~ m_axi_arvalid $end
   $var wire 64 "a m_axi_awaddr [63:0] $end
   $var wire  2 "e m_axi_awburst [1:0] $end
   $var wire  4 "g m_axi_awcache [3:0] $end
   $var wire 13 "` m_axi_awid [12:0] $end
   $var wire  8 "c m_axi_awlen [7:0] $end
   $var wire  1 "f m_axi_awlock $end
   $var wire  3 "h m_axi_awprot [2:0] $end
   $var wire  1 "j m_axi_awready $end
   $var wire  3 "d m_axi_awsize [2:0] $end
   $var wire  1 "i m_axi_awvalid $end
   $var wire 13 "q m_axi_bid [12:0] $end
   $var wire  1 "t m_axi_bready $end
   $var wire  2 "r m_axi_bresp [1:0] $end
   $var wire  1 "s m_axi_bvalid $end
   $var wire 64 ## m_axi_rdata [63:0] $end
   $var wire 13 #" m_axi_rid [12:0] $end
   $var wire  1 #& m_axi_rlast $end
   $var wire  1 #( m_axi_rready $end
   $var wire  2 #% m_axi_rresp [1:0] $end
   $var wire  1 #' m_axi_rvalid $end
   $var wire 64 "k m_axi_wdata [63:0] $end
   $var wire  1 "n m_axi_wlast $end
   $var wire  1 "p m_axi_wready $end
   $var wire  8 "m m_axi_wstrb [7:0] $end
   $var wire  1 "o m_axi_wvalid $end
   $var wire 64 # pc [63:0] $end
   $var wire  5 "T rd [4:0] $end
   $var wire  1 & receive_processing $end
   $var wire  1 % receive_ready $end
   $var wire 64 ) registers(0) [63:0] $end
   $var wire 64 + registers(1) [63:0] $end
   $var wire 64 = registers(10) [63:0] $end
   $var wire 64 ? registers(11) [63:0] $end
   $var wire 64 A registers(12) [63:0] $end
   $var wire 64 C registers(13) [63:0] $end
   $var wire 64 E registers(14) [63:0] $end
   $var wire 64 G registers(15) [63:0] $end
   $var wire 64 I registers(16) [63:0] $end
   $var wire 64 K registers(17) [63:0] $end
   $var wire 64 M registers(18) [63:0] $end
   $var wire 64 O registers(19) [63:0] $end
   $var wire 64 - registers(2) [63:0] $end
   $var wire 64 Q registers(20) [63:0] $end
   $var wire 64 S registers(21) [63:0] $end
   $var wire 64 U registers(22) [63:0] $end
   $var wire 64 W registers(23) [63:0] $end
   $var wire 64 Y registers(24) [63:0] $end
   $var wire 64 [ registers(25) [63:0] $end
   $var wire 64 ] registers(26) [63:0] $end
   $var wire 64 _ registers(27) [63:0] $end
   $var wire 64 a registers(28) [63:0] $end
   $var wire 64 c registers(29) [63:0] $end
   $var wire 64 / registers(3) [63:0] $end
   $var wire 64 e registers(30) [63:0] $end
   $var wire 64 g registers(31) [63:0] $end
   $var wire 64 1 registers(4) [63:0] $end
   $var wire 64 3 registers(5) [63:0] $end
   $var wire 64 5 registers(6) [63:0] $end
   $var wire 64 7 registers(7) [63:0] $end
   $var wire 64 9 registers(8) [63:0] $end
   $var wire 64 ; registers(9) [63:0] $end
   $var wire 64 i registers_temp(0) [63:0] $end
   $var wire 64 k registers_temp(1) [63:0] $end
   $var wire 64 } registers_temp(10) [63:0] $end
   $var wire 64 "! registers_temp(11) [63:0] $end
   $var wire 64 "# registers_temp(12) [63:0] $end
   $var wire 64 "% registers_temp(13) [63:0] $end
   $var wire 64 "' registers_temp(14) [63:0] $end
   $var wire 64 ") registers_temp(15) [63:0] $end
   $var wire 64 "+ registers_temp(16) [63:0] $end
   $var wire 64 "- registers_temp(17) [63:0] $end
   $var wire 64 "/ registers_temp(18) [63:0] $end
   $var wire 64 "1 registers_temp(19) [63:0] $end
   $var wire 64 m registers_temp(2) [63:0] $end
   $var wire 64 "3 registers_temp(20) [63:0] $end
   $var wire 64 "5 registers_temp(21) [63:0] $end
   $var wire 64 "7 registers_temp(22) [63:0] $end
   $var wire 64 "9 registers_temp(23) [63:0] $end
   $var wire 64 "; registers_temp(24) [63:0] $end
   $var wire 64 "= registers_temp(25) [63:0] $end
   $var wire 64 "? registers_temp(26) [63:0] $end
   $var wire 64 "A registers_temp(27) [63:0] $end
   $var wire 64 "C registers_temp(28) [63:0] $end
   $var wire 64 "E registers_temp(29) [63:0] $end
   $var wire 64 o registers_temp(3) [63:0] $end
   $var wire 64 "G registers_temp(30) [63:0] $end
   $var wire 64 "I registers_temp(31) [63:0] $end
   $var wire 64 q registers_temp(4) [63:0] $end
   $var wire 64 s registers_temp(5) [63:0] $end
   $var wire 64 u registers_temp(6) [63:0] $end
   $var wire 64 w registers_temp(7) [63:0] $end
   $var wire 64 y registers_temp(8) [63:0] $end
   $var wire 64 { registers_temp(9) [63:0] $end
   $var wire  1 "X reset $end
   $var wire 64 "R result [63:0] $end
   $var wire 64 "^ satp [63:0] $end
   $var wire 64 "\ stackptr [63:0] $end
   $var wire 12 "L temp12 [11:0] $end
   $var wire 20 "M temp20 [19:0] $end
   $var wire  5 "K temp5 [4:0] $end
   $var wire 64 "N temp64 [63:0] $end
   $var wire 64 "P temp_result [63:0] $end
   $var wire  1 "U write_enable $end
  $upscope $end
 $upscope $end
$enddefinitions $end


#0
b0000000000000000000000000000000000000000000000000000000000000000 #
0%
0&
b00000000000000000000000000000000 '
b00000000000000000000000000000000 (
b0000000000000000000000000000000000000000000000000000000000000000 )
b0000000000000000000000000000000000000000000000000000000000000000 +
b0000000000000000000000000000000000000000000000000000000000000000 -
b0000000000000000000000000000000000000000000000000000000000000000 /
b0000000000000000000000000000000000000000000000000000000000000000 1
b0000000000000000000000000000000000000000000000000000000000000000 3
b0000000000000000000000000000000000000000000000000000000000000000 5
b0000000000000000000000000000000000000000000000000000000000000000 7
b0000000000000000000000000000000000000000000000000000000000000000 9
b0000000000000000000000000000000000000000000000000000000000000000 ;
b0000000000000000000000000000000000000000000000000000000000000000 =
b0000000000000000000000000000000000000000000000000000000000000000 ?
b0000000000000000000000000000000000000000000000000000000000000000 A
b0000000000000000000000000000000000000000000000000000000000000000 C
b0000000000000000000000000000000000000000000000000000000000000000 E
b0000000000000000000000000000000000000000000000000000000000000000 G
b0000000000000000000000000000000000000000000000000000000000000000 I
b0000000000000000000000000000000000000000000000000000000000000000 K
b0000000000000000000000000000000000000000000000000000000000000000 M
b0000000000000000000000000000000000000000000000000000000000000000 O
b0000000000000000000000000000000000000000000000000000000000000000 Q
b0000000000000000000000000000000000000000000000000000000000000000 S
b0000000000000000000000000000000000000000000000000000000000000000 U
b0000000000000000000000000000000000000000000000000000000000000000 W
b0000000000000000000000000000000000000000000000000000000000000000 Y
b0000000000000000000000000000000000000000000000000000000000000000 [
b0000000000000000000000000000000000000000000000000000000000000000 ]
b0000000000000000000000000000000000000000000000000000000000000000 _
b0000000000000000000000000000000000000000000000000000000000000000 a
b0000000000000000000000000000000000000000000000000000000000000000 c
b0000000000000000000000000000000000000000000000000000000000000000 e
b0000000000000000000000000000000000000000000000000000000000000000 g
b0000000000000000000000000000000000000000000000000000000000000000 i
b0000000000000000000000000000000000000000000000000000000000000000 k
b0000000000000000000000000000000000000000000000000000000000000000 m
b0000000000000000000000000000000000000000000000000000000000000000 o
b0000000000000000000000000000000000000000000000000000000000000000 q
b0000000000000000000000000000000000000000000000000000000000000000 s
b0000000000000000000000000000000000000000000000000000000000000000 u
b0000000000000000000000000000000000000000000000000000000000000000 w
b0000000000000000000000000000000000000000000000000000000000000000 y
b0000000000000000000000000000000000000000000000000000000000000000 {
b0000000000000000000000000000000000000000000000000000000000000000 }
b0000000000000000000000000000000000000000000000000000000000000000 "!
b0000000000000000000000000000000000000000000000000000000000000000 "#
b0000000000000000000000000000000000000000000000000000000000000000 "%
b0000000000000000000000000000000000000000000000000000000000000000 "'
b0000000000000000000000000000000000000000000000000000000000000000 ")
b0000000000000000000000000000000000000000000000000000000000000000 "+
b0000000000000000000000000000000000000000000000000000000000000000 "-
b0000000000000000000000000000000000000000000000000000000000000000 "/
b0000000000000000000000000000000000000000000000000000000000000000 "1
b0000000000000000000000000000000000000000000000000000000000000000 "3
b0000000000000000000000000000000000000000000000000000000000000000 "5
b0000000000000000000000000000000000000000000000000000000000000000 "7
b0000000000000000000000000000000000000000000000000000000000000000 "9
b0000000000000000000000000000000000000000000000000000000000000000 ";
b0000000000000000000000000000000000000000000000000000000000000000 "=
b0000000000000000000000000000000000000000000000000000000000000000 "?
b0000000000000000000000000000000000000000000000000000000000000000 "A
b0000000000000000000000000000000000000000000000000000000000000000 "C
b0000000000000000000000000000000000000000000000000000000000000000 "E
b0000000000000000000000000000000000000000000000000000000000000000 "G
b0000000000000000000000000000000000000000000000000000000000000000 "I
b00000 "K
b000000000000 "L
b00000000000000000000 "M
b0000000000000000000000000000000000000000000000000000000000000000 "N
b0000000000000000000000000000000000000000000000000000000000000000 "P
b0000000000000000000000000000000000000000000000000000000000000000 "R
b00000 "T
0"U
b00000000000000000000000000100000 "V
1"W
1"X
0"Y
b0000000000000000000000000000000000000000000000000000000000000000 "Z
b0000000000000000000000000000000000111111110000000000000000000000 "\
b0000000000000000000000000000000000110100010101100111000000000000 "^
b0000000000000 "`
b0000000000000000000000000000000000000000000000000000000000000000 "a
b00000000 "c
b000 "d
b00 "e
0"f
b0000 "g
b000 "h
0"i
0"j
b0000000000000000000000000000000000000000000000000000000000000000 "k
b00000000 "m
0"n
0"o
0"p
b0000000000000 "q
b00 "r
0"s
0"t
b0000000000000 "u
b0000000000000000000000000000000000000000000000000000000000000000 "v
b00000000 "x
b000 "y
b00 "z
0"{
b0000 "|
b000 "}
0"~
0#!
b0000000000000 #"
b0000000000000000000000000000000000000000000000000000000000000000 ##
b00 #%
0#&
0#'
0#(
0#)
0#*
b0000000000000000000000000000000000000000000000000000000000000000 #+
b0000 #-
b00000000000000000000000000001101 #.
b00000000000000000000000001000000 #/
b00000000000000000000000000001000 #0
#0
1"j
1"p
1#!
#250
0"W
#250
#500
1"W
#500
#750
0"W
#750
#1000
1"W
#1000
#1250
0"W
0"X
#1250
#1500
1&
1"W
b00000111 "x
b10 "z
1"~
1#(
#1500
1"Y
#1750
0"W
#1750
#2000
1"W
0"~
#2000
#2250
0"W
#2250
#2500
1"W
#2500
#2750
0"W
#2750
#3000
1"W
#3000
#3250
0"W
#3250
#3500
1"W
#3500
#3750
0"W
#3750
#4000
1"W
#4000
#4250
0"W
#4250
#4500
1"W
#4500
#4750
0"W
#4750
#5000
1"W
#5000
#5250
0"W
#5250
#5500
1"W
#5500
#5750
0"W
#5750
#6000
1"W
#6000
#6250
0"W
#6250
#6500
1"W
#6500
#6750
0"W
#6750
#7000
1"W
#7000
#7250
0"W
#7250
#7500
1"W
#7500
#7750
0"W
#7750
#8000
1"W
#8000
#8250
0"W
#8250
#8500
1"W
#8500
#8750
0"W
#8750
#9000
1"W
#9000
#9250
0"W
#9250
#9500
1"W
#9500
#9750
0"W
#9750
#10000
1"W
#10000
#10250
0"W
#10250
#10500
1"W
#10500
#10750
0"W
#10750
#11000
1"W
#11000
#11250
0"W
#11250
#11500
1"W
#11500
#11750
0"W
#11750
#12000
1"W
#12000
#12250
0"W
#12250
#12500
1"W
#12500
#12750
0"W
#12750
#13000
1"W
#13000
#13250
0"W
#13250
#13500
1"W
#13500
#13750
0"W
#13750
#14000
1"W
#14000
#14250
0"W
#14250
#14500
1"W
#14500
#14750
0"W
#14750
#15000
1"W
#15000
#15250
0"W
#15250
#15500
1"W
#15500
#15750
0"W
#15750
#16000
1"W
#16000
#16250
0"W
#16250
#16500
1"W
#16500
#16750
0"W
#16750
#17000
1"W
#17000
#17250
0"W
#17250
#17500
1"W
#17500
#17750
0"W
#17750
#18000
1"W
#18000
#18250
0"W
#18250
#18500
1"W
#18500
#18750
0"W
#18750
#19000
1"W
#19000
#19250
0"W
#19250
#19500
1"W
#19500
#19750
0"W
#19750
#20000
1"W
#20000
#20250
0"W
#20250
#20500
1"W
#20500
#20750
0"W
#20750
#21000
1"W
#21000
#21250
0"W
#21250
#21500
1"W
#21500
#21750
0"W
#21750
#22000
1"W
#22000
#22250
0"W
#22250
#22500
1"W
#22500
#22750
0"W
#22750
#23000
1"W
#23000
#23250
0"W
#23250
#23500
1"W
#23500
#23750
0"W
#23750
#24000
1"W
#24000
#24250
0"W
#24250
#24500
1"W
#24500
#24750
0"W
#24750
#25000
1"W
#25000
#25250
0"W
#25250
#25500
1"W
#25500
#25750
0"W
#25750
#26000
1"W
#26000
#26250
0"W
#26250
#26500
1"W
#26500
#26750
0"W
#26750
#27000
1"W
#27000
#27250
0"W
#27250
#27500
1"W
#27500
#27750
0"W
#27750
#28000
1"W
#28000
#28250
0"W
#28250
#28500
1"W
#28500
#28750
0"W
#28750
#29000
1"W
#29000
#29250
0"W
#29250
#29500
1"W
#29500
#29750
0"W
#29750
#30000
1"W
#30000
#30250
0"W
#30250
#30500
1"W
#30500
#30750
0"W
#30750
#31000
1"W
#31000
#31250
0"W
#31250
#31500
1"W
#31500
#31750
0"W
#31750
#32000
1"W
#32000
#32250
0"W
#32250
#32500
1"W
#32500
#32750
0"W
#32750
#33000
1"W
#33000
#33250
0"W
#33250
#33500
1"W
#33500
#33750
0"W
#33750
#34000
1"W
#34000
#34250
0"W
#34250
#34500
1"W
#34500
#34750
0"W
#34750
#35000
1"W
#35000
#35250
0"W
#35250
#35500
1"W
#35500
#35750
0"W
#35750
#36000
1"W
#36000
#36250
0"W
#36250
#36500
1"W
#36500
#36750
0"W
#36750
#37000
1"W
#37000
#37250
0"W
#37250
#37500
1"W
#37500
#37750
0"W
#37750
#38000
1"W
#38000
#38250
0"W
#38250
#38500
1"W
#38500
#38750
0"W
#38750
#39000
1"W
#39000
#39250
0"W
#39250
#39500
1"W
#39500
#39750
0"W
#39750
#40000
1"W
#40000
#40250
0"W
#40250
#40500
1"W
#40500
#40750
0"W
#40750
#41000
1"W
#41000
#41250
0"W
#41250
#41500
1"W
#41500
#41750
0"W
#41750
#42000
1"W
#42000
#42250
0"W
#42250
#42500
1"W
#42500
#42750
0"W
#42750
#43000
1"W
#43000
#43250
0"W
#43250
#43500
1"W
#43500
#43750
0"W
#43750
#44000
1"W
#44000
#44250
0"W
#44250
#44500
1"W
#44500
#44750
0"W
#44750
#45000
1"W
#45000
#45250
0"W
#45250
#45500
1"W
#45500
#45750
0"W
#45750
#46000
1"W
#46000
#46250
0"W
#46250
#46500
1"W
#46500
#46750
0"W
#46750
#47000
1"W
#47000
#47250
0"W
#47250
#47500
1"W
#47500
#47750
0"W
#47750
#48000
1"W
#48000
#48250
0"W
#48250
#48500
1"W
#48500
#48750
0"W
#48750
#49000
1"W
#49000
#49250
0"W
#49250
#49500
1"W
#49500
b0000000010100000000000001001001111111110000000010000000100010011 ##
1#'
#49750
0"W
#49750
#50000
b0000000000000000000000000000000000000000000000000000000000001000 #
1%
0&
b00000000101000000000000010010011 '
b11111110000000010000000100010011 (
b0000000000000000000000000000000000000000000000000000000000001010 +
b1111111111111111111111111111111111111111111111111111111111100000 -
b0000000000000000000000000000000000000000000000000000000000001010 k
b1111111111111111111111111111111111111111111111111111111111100000 m
b000000001010 "L
b0000000000000000000000000000000000000000000000000000000000001010 "N
b0000000000000000000000000000000000000000000000000000000000001010 "R
b00001 "T
1"U
1"W
#50000
b0000000111100000000000011001001100000001010000000000000100010011 ##
#50250
0"W
#50250
#50500
b0000000000000000000000000000000000000000000000000000000000010000 #
b00000001111000000000000110010011 '
b00000001010000000000000100010011 (
b0000000000000000000000000000000000000000000000000000000000010100 -
b0000000000000000000000000000000000000000000000000000000000011110 /
b0000000000000000000000000000000000000000000000000000000000010100 m
b0000000000000000000000000000000000000000000000000000000000011110 o
b000000011110 "L
b0000000000000000000000000000000000000000000000000000000000011110 "N
b0000000000000000000000000000000000000000000000000000000000011110 "R
b00011 "T
1"W
#50500
b0000000001010000000000101001001100000010100000000000001000010011 ##
#50750
0"W
#50750
#51000
b0000000000000000000000000000000000000000000000000000000000011000 #
b00000000010100000000001010010011 '
b00000010100000000000001000010011 (
b0000000000000000000000000000000000000000000000000000000000101000 1
b0000000000000000000000000000000000000000000000000000000000000101 3
b0000000000000000000000000000000000000000000000000000000000101000 q
b0000000000000000000000000000000000000000000000000000000000000101 s
b000000000101 "L
b0000000000000000000000000000000000000000000000000000000000000101 "N
b0000000000000000000000000000000000000000000000000000000000000101 "R
b00101 "T
1"W
#51000
b0000000001110000000000111001001100000000011000000000001100010011 ##
#51250
0"W
#51250
#51500
b0000000000000000000000000000000000000000000000000000000000100000 #
b00000000011100000000001110010011 '
b00000000011000000000001100010011 (
b0000000000000000000000000000000000000000000000000000000000000110 5
b0000000000000000000000000000000000000000000000000000000000000111 7
b0000000000000000000000000000000000000000000000000000000000000110 u
b0000000000000000000000000000000000000000000000000000000000000111 w
b000000000111 "L
b0000000000000000000000000000000000000000000000000000000000000111 "N
b0000000000000000000000000000000000000000000000000000000000000111 "R
b00111 "T
1"W
#51500
b0000000000000000100001110001001100000000100000000000010000010011 ##
#51750
0"W
#51750
#52000
b0000000000000000000000000000000000000000000000000000000000101000 #
b00000000000000001000011100010011 '
b00000000100000000000010000010011 (
b0000000000000000000000000000000000000000000000000000000000001000 9
b0000000000000000000000000000000000000000000000000000000000001010 E
b0000000000000000000000000000000000000000000000000000000000001000 y
b0000000000000000000000000000000000000000000000000000000000001010 "'
b000000000000 "L
b0000000000000000000000000000000000000000000000000000000000000000 "N
b0000000000000000000000000000000000000000000000000000000000001010 "R
b01110 "T
1"W
#52000
b0000001011110111000001110011101100000000000000101000011110010011 ##
#52250
0"W
#52250
#52500
b0000000000000000000000000000000000000000000000000000000000110000 #
b00000010111101110000011100111011 '
b00000000000000101000011110010011 (
b0000000000000000000000000000000000000000000000000000000000110010 E
b0000000000000000000000000000000000000000000000000000000000000101 G
b0000000000000000000000000000000000000000000000000000000000110010 "'
b0000000000000000000000000000000000000000000000000000000000000101 ")
b0000000000000000000000000000000000000000000000000000000000110010 "P
b0000000000000000000000000000000000000000000000000000000000110010 "R
1"W
#52500
b0000000000000011100001111001001100000000000000010000011010010011 ##
#52750
0"W
#52750
#53000
b0000000000000000000000000000000000000000000000000000000000111000 #
b00000000000000111000011110010011 '
b00000000000000010000011010010011 (
b0000000000000000000000000000000000000000000000000000000000010100 C
b0000000000000000000000000000000000000000000000000000000000000111 G
b0000000000000000000000000000000000000000000000000000000000010100 "%
b0000000000000000000000000000000000000000000000000000000000000111 ")
b0000000000000000000000000000000000000000000000000000000000000111 "R
b01111 "T
1"W
#53000
b0000000011110111000001111011101100000010111101101000011110111011 ##
1#&
#53250
0"W
#53250
#53500
b0000000000000000000000000000000000000000000000000000000001000000 #
0%
b00000000111101110000011110111011 '
b00000010111101101000011110111011 (
b0000000000000000000000000000000000000000000000000000000010111110 G
b0000000000000000000000000000000000000000000000000000000010111110 ")
b0000000000000000000000000000000000000000000000000000000010111110 "P
b0000000000000000000000000000000000000000000000000000000010111110 "R
1"W
0#(
#53500
0#'
#53750
0"W
#53750
#54000
1&
1"W
b0000000000000000000000000000000000000000000000000000000001000000 "v
1"~
1#(
#54000
#54250
0"W
#54250
#54500
1"W
0"~
